%YAML 1.1
%TAG !u! tag:unity3d.com,2011:
--- !u!1001 &859875214007843734
PrefabInstance:
  m_ObjectHideFlags: 0
  serializedVersion: 2
  m_Modification:
    serializedVersion: 3
    m_TransformParent: {fileID: 0}
    m_Modifications:
    - target: {fileID: 1551307908973724939, guid: 984c31f2f1206774085587cae40258e2, type: 3}
      propertyPath: score
      value: 10
      objectReference: {fileID: 0}
    - target: {fileID: 1551307908973724939, guid: 984c31f2f1206774085587cae40258e2, type: 3}
      propertyPath: sprite1
      value: 
      objectReference: {fileID: 21300000, guid: c8e61345d3987184b973a87b6d24e87a, type: 3}
    - target: {fileID: 1551307908973724939, guid: 984c31f2f1206774085587cae40258e2, type: 3}
      propertyPath: sprite2
      value: 
      objectReference: {fileID: 21300000, guid: 62bd310435a5d0c468ae8052f0a3e83c, type: 3}
    - target: {fileID: 1551307908973724939, guid: 984c31f2f1206774085587cae40258e2, type: 3}
      propertyPath: animationSprites.Array.size
      value: 2
      objectReference: {fileID: 0}
    - target: {fileID: 1551307908973724939, guid: 984c31f2f1206774085587cae40258e2, type: 3}
      propertyPath: animationSprites.Array.data[0]
      value: 
      objectReference: {fileID: 21300000, guid: c434aaf490435b844b8ed546c98c7713, type: 3}
    - target: {fileID: 1551307908973724939, guid: 984c31f2f1206774085587cae40258e2, type: 3}
      propertyPath: animationSprites.Array.data[1]
      value: 
      objectReference: {fileID: 21300000, guid: a1b755fc62d63274caa0ce4c40882d51, type: 3}
    - target: {fileID: 8922502034929116581, guid: 984c31f2f1206774085587cae40258e2, type: 3}
      propertyPath: m_Name
      value: Invader_03
      objectReference: {fileID: 0}
    - target: {fileID: 8922502034929116582, guid: 984c31f2f1206774085587cae40258e2, type: 3}
      propertyPath: m_Size.x
      value: 1.5
      objectReference: {fileID: 0}
    - target: {fileID: 8922502034929116582, guid: 984c31f2f1206774085587cae40258e2, type: 3}
      propertyPath: m_Sprite
      value: 
      objectReference: {fileID: 21300000, guid: c8e61345d3987184b973a87b6d24e87a, type: 3}
    - target: {fileID: 8922502034929116582, guid: 984c31f2f1206774085587cae40258e2, type: 3}
      propertyPath: m_WasSpriteAssigned
      value: 0
      objectReference: {fileID: 0}
    - target: {fileID: 8922502034929116583, guid: 984c31f2f1206774085587cae40258e2, type: 3}
      propertyPath: m_RootOrder
      value: 0
      objectReference: {fileID: 0}
    - target: {fileID: 8922502034929116583, guid: 984c31f2f1206774085587cae40258e2, type: 3}
      propertyPath: m_LocalPosition.x
      value: 0
      objectReference: {fileID: 0}
    - target: {fileID: 8922502034929116583, guid: 984c31f2f1206774085587cae40258e2, type: 3}
      propertyPath: m_LocalPosition.y
      value: 0
      objectReference: {fileID: 0}
    - target: {fileID: 8922502034929116583, guid: 984c31f2f1206774085587cae40258e2, type: 3}
      propertyPath: m_LocalPosition.z
      value: 0
      objectReference: {fileID: 0}
    - target: {fileID: 8922502034929116583, guid: 984c31f2f1206774085587cae40258e2, type: 3}
      propertyPath: m_LocalRotation.w
      value: 1
      objectReference: {fileID: 0}
    - target: {fileID: 8922502034929116583, guid: 984c31f2f1206774085587cae40258e2, type: 3}
      propertyPath: m_LocalRotation.x
      value: 0
      objectReference: {fileID: 0}
    - target: {fileID: 8922502034929116583, guid: 984c31f2f1206774085587cae40258e2, type: 3}
      propertyPath: m_LocalRotation.y
      value: 0
      objectReference: {fileID: 0}
    - target: {fileID: 8922502034929116583, guid: 984c31f2f1206774085587cae40258e2, type: 3}
      propertyPath: m_LocalRotation.z
      value: 0
      objectReference: {fileID: 0}
    - target: {fileID: 8922502034929116583, guid: 984c31f2f1206774085587cae40258e2, type: 3}
      propertyPath: m_LocalEulerAnglesHint.x
      value: 0
      objectReference: {fileID: 0}
    - target: {fileID: 8922502034929116583, guid: 984c31f2f1206774085587cae40258e2, type: 3}
      propertyPath: m_LocalEulerAnglesHint.y
      value: 0
      objectReference: {fileID: 0}
    - target: {fileID: 8922502034929116583, guid: 984c31f2f1206774085587cae40258e2, type: 3}
      propertyPath: m_LocalEulerAnglesHint.z
      value: 0
      objectReference: {fileID: 0}
    - target: {fileID: 8922502034929116585, guid: 984c31f2f1206774085587cae40258e2, type: 3}
      propertyPath: m_Size.x
      value: 1.5
      objectReference: {fileID: 0}
    - target: {fileID: 8922502034929116585, guid: 984c31f2f1206774085587cae40258e2, type: 3}
      propertyPath: m_SpriteTilingProperty.newSize.x
      value: 1.5
      objectReference: {fileID: 0}
    - target: {fileID: 8922502034929116585, guid: 984c31f2f1206774085587cae40258e2, type: 3}
      propertyPath: m_SpriteTilingProperty.oldSize.x
      value: 1.5
      objectReference: {fileID: 0}
    m_RemovedComponents: []
    m_RemovedGameObjects: []
    m_AddedGameObjects: []
    m_AddedComponents: []
  m_SourcePrefab: {fileID: 100100000, guid: 984c31f2f1206774085587cae40258e2, type: 3}
